[
	{
		"_id": "a-50",
		"_parentId": "co-50",
		"_type": "article",
		"_classes": "banner_01",
		"title": "a-50",
		"displayTitle": "",
		"body": ""
	},
    {
        "_id":"a-65",
        "_parentId":"co-50",
           "_type": "article",
        "_classes": "gradient_light_blue",
        "title": "a-65",
        "displayTitle": "",
        "body": "",
        "_articleBlockSlider": {
        "_isEnabled": true,
        "_slideAnimationDuration": 600,
        "_heightAnimationDuration": 300,
        "_isEnabledOnScreenSizes": "large",
        "_hasTabs": false,
        "_hasArrows": true,
        "_startIndex": 0,
        "_hasUniformHeight": true,
        "_minHeight": 250
        },
            "_pageLevelProgress": {
                "_isEnabled": false
            }
    },
    {
		"_id": "a-70",
		"_parentId": "co-50",
		"_type": "article",
		"_classes": "banner_01",
		"title": "a-70",
		"displayTitle": "",
		"body": ""
	},
    {
		"_id": "a-100",
		"_parentId": "co-100",
		"_type": "article",
		"_classes": "banner_01",
		"title": "a-100",
		"displayTitle": "",
		"body": ""
	},
    {
		"_id": "a-150",
		"_parentId": "co-150",
		"_type": "article",
		"_classes": "banner_01",
		"title": "a-150",
		"displayTitle": "",
		"body": ""
	},
    {
		"_id": "a-200",
		"_parentId": "co-200",
		"_type": "article",
		"_classes": "banner_01",
		"title": "a-200",
		"displayTitle": "",
		"body": ""
	},
    {
		"_id": "a-250",
		"_parentId": "co-250",
		"_type": "article",
		"_classes": "banner_01",
		"title": "a-250",
		"displayTitle": "",
		"body": ""
	}
	
]
